<svg width="1076" height="432" viewBox="0 0 1076 432" fill="none" xmlns="http://www.w3.org/2000/svg">
<path d="M77.3849 83V71.48H81.0809C84.9049 71.48 86.7449 74.056 86.7449 77.24C86.7449 80.424 84.9049 83 81.0809 83H77.3849ZM78.6489 81.848H81.0809C84.1049 81.848 85.4329 79.832 85.4329 77.24C85.4329 74.648 84.1049 72.632 81.0809 72.632H78.6489V81.848ZM88.3194 83V74.68H89.5354V83H88.3194ZM88.3194 73.096V71.48H89.5194V73.096H88.3194ZM92.324 73.384C92.324 72.136 92.772 71.48 94.228 71.48H95.812V72.536H94.436C93.764 72.536 93.524 72.856 93.524 73.512V74.68H95.812V75.736H93.524V83H92.324V75.736H90.772V74.68H92.324V73.384ZM98.074 73.384C98.074 72.136 98.522 71.48 99.978 71.48H101.562V72.536H100.186C99.514 72.536 99.274 72.856 99.274 73.512V74.68H101.562V75.736H99.274V83H98.074V75.736H96.522V74.68H98.074V73.384ZM106.464 83.192C104.112 83.192 102.624 81.32 102.624 78.84C102.624 76.36 104.112 74.488 106.464 74.488C108.832 74.488 110.32 76.36 110.32 78.84V79.256H103.888C104.016 80.92 104.912 82.104 106.464 82.104C107.632 82.104 108.528 81.464 108.912 80.424H110.144C109.632 82.088 108.288 83.192 106.464 83.192ZM103.92 78.168H109.008C108.816 76.648 107.952 75.576 106.464 75.576C104.992 75.576 104.112 76.648 103.92 78.168ZM111.914 83V74.68H113.066V76.152C113.738 74.904 114.762 74.584 115.786 74.584H116.41V75.752H115.738C114.33 75.752 113.13 76.424 113.114 78.536V83H111.914ZM121.308 83.192C118.956 83.192 117.468 81.32 117.468 78.84C117.468 76.36 118.956 74.488 121.308 74.488C123.676 74.488 125.164 76.36 125.164 78.84V79.256H118.732C118.86 80.92 119.756 82.104 121.308 82.104C122.476 82.104 123.372 81.464 123.756 80.424H124.988C124.476 82.088 123.132 83.192 121.308 83.192ZM118.764 78.168H123.852C123.66 76.648 122.796 75.576 121.308 75.576C119.836 75.576 118.956 76.648 118.764 78.168ZM132.39 77.672C132.39 76.392 131.734 75.576 130.406 75.576C129.622 75.576 127.958 76.056 127.958 78.344V83H126.758V74.68H127.91V75.96C128.454 75.128 129.35 74.488 130.63 74.488C132.694 74.488 133.59 75.976 133.59 77.544V83H132.39V77.672ZM136.402 72.12H137.602V74.68H139.89V75.736H137.602V80.968C137.602 81.624 137.842 81.944 138.514 81.944H139.89V83H138.306C136.85 83 136.402 82.344 136.402 81.096V75.736H134.85V74.68H136.402V72.12ZM141.288 83V74.68H142.504V83H141.288ZM141.288 73.096V71.48H142.488V73.096H141.288ZM149.693 83V81.832C148.973 82.84 147.965 83.192 146.925 83.192C145.069 83.192 143.965 82.296 143.965 80.76C143.965 79.304 145.069 78.552 146.973 78.184L149.645 77.656V77C149.645 75.944 148.941 75.56 147.709 75.56C146.653 75.56 145.533 75.912 145.469 77.24H144.269C144.317 75.256 145.949 74.488 147.709 74.488C149.821 74.488 150.813 75.416 150.813 76.888V83H149.693ZM145.213 80.728C145.213 81.544 145.741 82.12 146.973 82.12C148.301 82.12 149.645 81.368 149.645 79.64V78.68L147.133 79.208C145.949 79.464 145.213 79.752 145.213 80.728ZM153.387 72.12H154.587V74.68H156.875V75.736H154.587V80.968C154.587 81.624 154.827 81.944 155.499 81.944H156.875V83H155.291C153.835 83 153.387 82.344 153.387 81.096V75.736H151.835V74.68H153.387V72.12ZM161.777 83.192C159.424 83.192 157.937 81.32 157.937 78.84C157.937 76.36 159.424 74.488 161.777 74.488C164.145 74.488 165.633 76.36 165.633 78.84V79.256H159.201C159.329 80.92 160.225 82.104 161.777 82.104C162.945 82.104 163.841 81.464 164.225 80.424H165.457C164.945 82.088 163.601 83.192 161.777 83.192ZM159.233 78.168H164.321C164.129 76.648 163.265 75.576 161.777 75.576C160.305 75.576 159.424 76.648 159.233 78.168ZM174.714 83H173.562V81.624C172.97 82.6 172.01 83.192 170.698 83.192C168.218 83.192 166.858 81.32 166.858 78.84C166.858 76.36 168.218 74.488 170.698 74.488C171.978 74.488 172.922 75.048 173.514 75.976V71.48H174.714V83ZM168.122 78.84C168.122 80.712 169.018 82.104 170.826 82.104C172.65 82.104 173.546 80.712 173.546 78.84C173.546 76.968 172.65 75.576 170.826 75.576C169.018 75.576 168.122 76.968 168.122 78.84ZM110.079 107L105.647 95.48H106.991L110.767 105.608L114.543 95.48H115.871L111.455 107H110.079ZM122.38 107V105.832C121.66 106.84 120.652 107.192 119.612 107.192C117.756 107.192 116.652 106.296 116.652 104.76C116.652 103.304 117.756 102.552 119.66 102.184L122.332 101.656V101C122.332 99.944 121.628 99.56 120.396 99.56C119.34 99.56 118.22 99.912 118.156 101.24H116.956C117.004 99.256 118.636 98.488 120.396 98.488C122.508 98.488 123.5 99.416 123.5 100.888V107H122.38ZM117.9 104.728C117.9 105.544 118.428 106.12 119.66 106.12C120.988 106.12 122.332 105.368 122.332 103.64V102.68L119.82 103.208C118.636 103.464 117.9 103.752 117.9 104.728ZM125.242 95.48H126.442V104.968C126.442 105.624 126.682 105.944 127.354 105.944H128.458V107H127.146C125.69 107 125.242 106.344 125.242 105.096V95.48ZM131.083 104.008C131.083 105.288 131.739 106.104 133.067 106.104C133.851 106.104 135.515 105.624 135.515 103.336V98.68H136.715V107H135.563V105.72C135.019 106.552 134.123 107.192 132.843 107.192C130.779 107.192 129.883 105.704 129.883 104.136V98.68H131.083V104.008ZM142.167 107.192C139.815 107.192 138.327 105.32 138.327 102.84C138.327 100.36 139.815 98.488 142.167 98.488C144.535 98.488 146.023 100.36 146.023 102.84V103.256H139.591C139.719 104.92 140.615 106.104 142.167 106.104C143.335 106.104 144.231 105.464 144.615 104.424H145.847C145.335 106.088 143.991 107.192 142.167 107.192ZM139.623 102.168H144.711C144.519 100.648 143.655 99.576 142.167 99.576C140.695 99.576 139.815 100.648 139.623 102.168Z" fill="#292728"/>
<path d="M75.0681 271L71.1481 261.656V271H69.9161V259.48H71.5481L75.6601 269.576L79.7561 259.48H81.3881V271H80.1561V261.688L76.2521 271H75.0681ZM88.6928 271V269.832C87.9728 270.84 86.9648 271.192 85.9248 271.192C84.0688 271.192 82.9648 270.296 82.9648 268.76C82.9648 267.304 84.0688 266.552 85.9728 266.184L88.6448 265.656V265C88.6448 263.944 87.9408 263.56 86.7088 263.56C85.6528 263.56 84.5328 263.912 84.4688 265.24H83.2688C83.3168 263.256 84.9488 262.488 86.7088 262.488C88.8208 262.488 89.8128 263.416 89.8128 264.888V271H88.6928ZM84.2128 268.728C84.2128 269.544 84.7408 270.12 85.9728 270.12C87.3008 270.12 88.6448 269.368 88.6448 267.64V266.68L86.1328 267.208C84.9488 267.464 84.2128 267.752 84.2128 268.728ZM96.9305 271L94.5145 267.704L92.0985 271H90.6905L93.8105 266.744L90.8345 262.68H92.2585L94.5305 265.768L96.7865 262.68H98.1945L95.2345 266.728L98.3545 271H96.9305ZM99.4444 271V262.68H100.66V271H99.4444ZM99.4444 261.096V259.48H100.644V261.096H99.4444ZM113.145 265.672C113.145 264.392 112.457 263.576 111.337 263.576C110.553 263.576 109.081 264.056 109.081 266.344V271H107.881V265.672C107.881 264.392 107.193 263.576 106.073 263.576C105.289 263.576 103.817 264.056 103.817 266.344V271H102.617V262.68H103.769V263.928C104.233 263.112 105.033 262.488 106.297 262.488C107.593 262.488 108.441 263.208 108.825 264.184C109.305 263.24 110.169 262.488 111.561 262.488C113.417 262.488 114.345 263.976 114.345 265.544V271H113.145V265.672ZM116.304 271V262.68H117.52V271H116.304ZM116.304 261.096V259.48H117.504V261.096H116.304ZM119.076 271V270.072L124.132 263.736H119.236V262.68H125.62V263.608L120.58 269.944H125.78V271H119.076ZM130.839 271.192C128.487 271.192 126.999 269.32 126.999 266.84C126.999 264.36 128.487 262.488 130.839 262.488C133.207 262.488 134.695 264.36 134.695 266.84V267.256H128.263C128.391 268.92 129.287 270.104 130.839 270.104C132.007 270.104 132.903 269.464 133.287 268.424H134.519C134.007 270.088 132.663 271.192 130.839 271.192ZM128.295 266.168H133.383C133.191 264.648 132.327 263.576 130.839 263.576C129.367 263.576 128.487 264.648 128.295 266.168ZM139.619 271V259.48H144.339C146.995 259.48 148.259 260.76 148.259 262.744C148.259 263.848 147.683 264.888 146.387 265.48C147.267 265.784 147.699 266.456 147.843 267.384L148.403 271H147.107L146.675 267.96C146.483 266.6 145.843 266.008 144.403 266.008H140.883V271H139.619ZM140.883 264.856H144.339C146.131 264.856 146.947 264.024 146.947 262.744C146.947 261.464 146.131 260.632 144.339 260.632H140.883V264.856ZM153.339 271.192C150.987 271.192 149.499 269.32 149.499 266.84C149.499 264.36 150.987 262.488 153.339 262.488C155.707 262.488 157.195 264.36 157.195 266.84V267.256H150.763C150.891 268.92 151.787 270.104 153.339 270.104C154.507 270.104 155.403 269.464 155.787 268.424H157.019C156.507 270.088 155.163 271.192 153.339 271.192ZM150.795 266.168H155.883C155.691 264.648 154.827 263.576 153.339 263.576C151.867 263.576 150.987 264.648 150.795 266.168ZM159.989 268.008C159.989 269.288 160.645 270.104 161.973 270.104C162.757 270.104 164.421 269.624 164.421 267.336V262.68H165.621V271H164.469V269.72C163.925 270.552 163.029 271.192 161.749 271.192C159.685 271.192 158.789 269.704 158.789 268.136V262.68H159.989V268.008ZM170.545 271.192C168.529 271.192 167.121 270.248 167.025 268.28H168.241C168.353 269.608 169.137 270.136 170.545 270.136C171.809 270.136 172.625 269.672 172.625 268.792C172.625 268.008 172.337 267.656 170.433 267.352C167.921 266.936 167.281 266.136 167.281 264.824C167.281 263.4 168.545 262.488 170.321 262.488C172.417 262.488 173.649 263.496 173.681 265.24H172.481C172.417 263.96 171.553 263.528 170.321 263.528C169.297 263.528 168.481 263.976 168.481 264.808C168.481 265.64 168.929 265.928 170.753 266.248C173.185 266.664 173.841 267.368 173.841 268.712C173.841 270.328 172.401 271.192 170.545 271.192ZM178.714 271.192C176.362 271.192 174.874 269.32 174.874 266.84C174.874 264.36 176.362 262.488 178.714 262.488C181.082 262.488 182.57 264.36 182.57 266.84V267.256H176.138C176.266 268.92 177.162 270.104 178.714 270.104C179.882 270.104 180.778 269.464 181.162 268.424H182.394C181.882 270.088 180.538 271.192 178.714 271.192ZM176.17 266.168H181.258C181.066 264.648 180.202 263.576 178.714 263.576C177.242 263.576 176.362 264.648 176.17 266.168ZM92.4271 295V293.832C91.7071 294.84 90.6991 295.192 89.6591 295.192C87.8031 295.192 86.6991 294.296 86.6991 292.76C86.6991 291.304 87.8031 290.552 89.7071 290.184L92.3791 289.656V289C92.3791 287.944 91.6751 287.56 90.4431 287.56C89.3871 287.56 88.2671 287.912 88.2031 289.24H87.0031C87.0511 287.256 88.6831 286.488 90.4431 286.488C92.5551 286.488 93.5471 287.416 93.5471 288.888V295H92.4271ZM87.9471 292.728C87.9471 293.544 88.4751 294.12 89.7071 294.12C91.0351 294.12 92.3791 293.368 92.3791 291.64V290.68L89.8671 291.208C88.6831 291.464 87.9471 291.752 87.9471 292.728ZM100.921 289.672C100.921 288.392 100.265 287.576 98.9369 287.576C98.1529 287.576 96.4889 288.056 96.4889 290.344V295H95.2889V286.68H96.4409V287.96C96.9849 287.128 97.8809 286.488 99.1609 286.488C101.225 286.488 102.121 287.976 102.121 289.544V295H100.921V289.672ZM111.589 295H110.437V293.624C109.845 294.6 108.885 295.192 107.573 295.192C105.093 295.192 103.733 293.32 103.733 290.84C103.733 288.36 105.093 286.488 107.573 286.488C108.853 286.488 109.797 287.048 110.389 287.976V283.48H111.589V295ZM104.997 290.84C104.997 292.712 105.893 294.104 107.701 294.104C109.525 294.104 110.421 292.712 110.421 290.84C110.421 288.968 109.525 287.576 107.701 287.576C105.893 287.576 104.997 288.968 104.997 290.84ZM121.061 295.192C118.485 295.192 116.437 294.008 116.34 291.144H117.637C117.733 293.32 119.269 294.04 121.061 294.04C122.821 294.04 124.021 293.288 124.021 291.864C124.021 290.76 123.445 290.2 120.677 289.624C118.021 289.08 116.741 288.28 116.741 286.264C116.741 284.44 118.389 283.288 120.629 283.288C123.749 283.288 125.029 284.984 125.077 287.032H123.781C123.701 285.336 122.725 284.44 120.629 284.44C119.045 284.44 118.037 285.144 118.037 286.264C118.037 287.384 118.421 287.944 121.189 288.504C124.565 289.192 125.317 290.232 125.317 291.864C125.317 293.864 123.637 295.192 121.061 295.192ZM126.773 286.68H127.925V288.056C128.517 287.08 129.477 286.488 130.789 286.488C133.269 286.488 134.629 288.36 134.629 290.84C134.629 293.32 133.269 295.192 130.789 295.192C129.509 295.192 128.565 294.632 127.973 293.704V298.2H126.773V286.68ZM127.941 290.84C127.941 292.712 128.837 294.104 130.661 294.104C132.469 294.104 133.365 292.712 133.365 290.84C133.365 288.968 132.469 287.576 130.661 287.576C128.837 287.576 127.941 288.968 127.941 290.84ZM139.714 295.192C137.362 295.192 135.874 293.32 135.874 290.84C135.874 288.36 137.362 286.488 139.714 286.488C142.082 286.488 143.57 288.36 143.57 290.84V291.256H137.138C137.266 292.92 138.162 294.104 139.714 294.104C140.882 294.104 141.778 293.464 142.162 292.424H143.394C142.882 294.088 141.538 295.192 139.714 295.192ZM137.17 290.168H142.258C142.066 288.648 141.202 287.576 139.714 287.576C138.242 287.576 137.362 288.648 137.17 290.168ZM148.636 295.192C146.284 295.192 144.796 293.32 144.796 290.84C144.796 288.36 146.284 286.488 148.636 286.488C151.004 286.488 152.492 288.36 152.492 290.84V291.256H146.06C146.188 292.92 147.084 294.104 148.636 294.104C149.804 294.104 150.7 293.464 151.084 292.424H152.316C151.804 294.088 150.46 295.192 148.636 295.192ZM146.092 290.168H151.18C150.988 288.648 150.124 287.576 148.636 287.576C147.164 287.576 146.284 288.648 146.092 290.168ZM161.574 295H160.422V293.624C159.83 294.6 158.87 295.192 157.558 295.192C155.078 295.192 153.718 293.32 153.718 290.84C153.718 288.36 155.078 286.488 157.558 286.488C158.838 286.488 159.782 287.048 160.374 287.976V283.48H161.574V295ZM154.982 290.84C154.982 292.712 155.878 294.104 157.686 294.104C159.51 294.104 160.406 292.712 160.406 290.84C160.406 288.968 159.51 287.576 157.686 287.576C155.878 287.576 154.982 288.968 154.982 290.84ZM92.092 319.192C89.612 319.192 88.124 317.32 88.124 314.84C88.124 312.36 89.612 310.488 92.092 310.488C94.588 310.488 96.076 312.36 96.076 314.84C96.076 317.32 94.588 319.192 92.092 319.192ZM89.372 314.84C89.372 316.712 90.284 318.104 92.092 318.104C93.916 318.104 94.812 316.712 94.812 314.84C94.812 312.968 93.916 311.576 92.092 311.576C90.284 311.576 89.372 312.968 89.372 314.84ZM98.5115 309.384C98.5115 308.136 98.9595 307.48 100.416 307.48H102V308.536H100.624C99.9515 308.536 99.7115 308.856 99.7115 309.512V310.68H102V311.736H99.7115V319H98.5115V311.736H96.9595V310.68H98.5115V309.384ZM106.76 319V307.48H110.456C114.28 307.48 116.12 310.056 116.12 313.24C116.12 316.424 114.28 319 110.456 319H106.76ZM108.024 317.848H110.456C113.48 317.848 114.808 315.832 114.808 313.24C114.808 310.648 113.48 308.632 110.456 308.632H108.024V317.848ZM121.198 319.192C118.846 319.192 117.358 317.32 117.358 314.84C117.358 312.36 118.846 310.488 121.198 310.488C123.566 310.488 125.054 312.36 125.054 314.84V315.256H118.622C118.75 316.92 119.646 318.104 121.198 318.104C122.366 318.104 123.262 317.464 123.646 316.424H124.878C124.366 318.088 123.022 319.192 121.198 319.192ZM118.654 314.168H123.742C123.55 312.648 122.686 311.576 121.198 311.576C119.726 311.576 118.846 312.648 118.654 314.168ZM126.648 307.48H127.848V316.968C127.848 317.624 128.088 317.944 128.76 317.944H129.864V319H128.552C127.096 319 126.648 318.344 126.648 317.096V307.48ZM131.257 319V310.68H132.473V319H131.257ZM131.257 309.096V307.48H132.457V309.096H131.257ZM136.958 319L133.598 310.68H134.91L137.582 317.624L140.238 310.68H141.55L138.19 319H136.958ZM146.167 319.192C143.815 319.192 142.327 317.32 142.327 314.84C142.327 312.36 143.815 310.488 146.167 310.488C148.535 310.488 150.023 312.36 150.023 314.84V315.256H143.591C143.719 316.92 144.615 318.104 146.167 318.104C147.335 318.104 148.231 317.464 148.615 316.424H149.847C149.335 318.088 147.991 319.192 146.167 319.192ZM143.623 314.168H148.711C148.519 312.648 147.655 311.576 146.167 311.576C144.695 311.576 143.815 312.648 143.623 314.168ZM151.617 319V310.68H152.769V312.152C153.441 310.904 154.465 310.584 155.489 310.584H156.113V311.752H155.441C154.033 311.752 152.833 312.424 152.817 314.536V319H151.617ZM156.995 322.2V321.144H158.227C159.011 321.144 159.203 320.824 159.475 320.104L159.891 318.984L156.707 310.68H158.019L160.515 317.544L163.027 310.68H164.339L160.611 320.408C160.227 321.416 159.875 322.2 158.659 322.2H156.995Z" fill="#292728"/>
<rect x="271" y="156" width="517" height="120" rx="4" fill="#DEDC00"/>
<rect x="271" y="288" width="517" height="120" rx="4" fill="#DEDC00"/>
<rect x="271" y="24" width="120" height="120" rx="4" fill="#C8CBCA"/>
<path d="M318.197 89L317.222 86.39H312.437L311.462 89H309.542L313.772 78.2H315.887L320.147 89H318.197ZM313.037 84.785H316.622L314.837 79.955L313.037 84.785ZM321.279 89V78.2H325.164C328.839 78.2 330.564 80.57 330.564 83.6C330.564 86.63 328.839 89 325.164 89H321.279ZM323.124 87.38H325.164C327.624 87.38 328.644 85.73 328.644 83.6C328.644 81.47 327.624 79.82 325.164 79.82H323.124V87.38ZM339.892 89L338.917 86.39H334.132L333.157 89H331.237L335.467 78.2H337.582L341.842 89H339.892ZM334.732 84.785H338.317L336.532 79.955L334.732 84.785ZM347.008 89.18C344.383 89.18 342.508 87.935 342.448 85.37H344.278C344.338 87.14 345.628 87.635 347.053 87.635C348.418 87.635 349.378 87.08 349.378 86C349.378 85.175 348.913 84.74 346.573 84.275C344.008 83.78 342.748 82.94 342.748 80.975C342.748 79.205 344.338 78.02 346.663 78.02C349.603 78.02 350.953 79.52 351.013 81.62H349.213C349.138 80.24 348.358 79.565 346.663 79.565C345.448 79.565 344.638 80.09 344.638 80.93C344.638 81.785 344.983 82.235 347.263 82.685C350.443 83.285 351.268 84.275 351.268 85.925C351.268 87.98 349.513 89.18 347.008 89.18Z" fill="#141414"/>
<rect x="403" y="24" width="120" height="120" rx="4" fill="#C8CBCA"/>
<path d="M454.936 89V78.2H456.781V89H454.936ZM461.942 89L457.907 78.2H459.872L463.022 87.23L466.127 78.2H468.092L464.057 89H461.942ZM469.218 89V78.2H471.063V89H469.218Z" fill="#141414"/>
<path d="M448.977 221.18C446.352 221.18 444.477 219.935 444.417 217.37H446.247C446.307 219.14 447.597 219.635 449.022 219.635C450.387 219.635 451.347 219.08 451.347 218C451.347 217.175 450.882 216.74 448.542 216.275C445.977 215.78 444.717 214.94 444.717 212.975C444.717 211.205 446.307 210.02 448.632 210.02C451.572 210.02 452.922 211.52 452.982 213.62H451.182C451.107 212.24 450.327 211.565 448.632 211.565C447.417 211.565 446.607 212.09 446.607 212.93C446.607 213.785 446.952 214.235 449.232 214.685C452.412 215.285 453.237 216.275 453.237 217.925C453.237 219.98 451.482 221.18 448.977 221.18ZM457.356 221V211.865H453.861V210.2H462.741V211.865H459.231V221H457.356ZM471.831 221L470.856 218.39H466.071L465.096 221H463.176L467.406 210.2H469.521L473.781 221H471.831ZM466.671 216.785H470.256L468.471 211.955L466.671 216.785ZM481.873 221L476.713 212.705V221H474.913V210.2H476.998L482.158 218.48V210.2H483.958V221H481.873ZM485.841 221V210.2H489.726C493.401 210.2 495.126 212.57 495.126 215.6C495.126 218.63 493.401 221 489.726 221H485.841ZM487.686 219.38H489.726C492.186 219.38 493.206 217.73 493.206 215.6C493.206 213.47 492.186 211.82 489.726 211.82H487.686V219.38ZM504.453 221L503.478 218.39H498.693L497.718 221H495.798L500.028 210.2H502.143L506.403 221H504.453ZM499.293 216.785H502.878L501.093 211.955L499.293 216.785ZM507.535 221V210.2H512.275C514.885 210.2 516.07 211.475 516.07 213.35C516.07 214.415 515.485 215.345 514.39 215.945C515.245 216.305 515.635 216.98 515.77 217.865L516.25 221H514.345L513.985 218.345C513.805 217.145 513.235 216.635 512.095 216.635H509.38V221H507.535ZM509.38 215.12H512.08C513.505 215.12 514.165 214.505 514.165 213.44C514.165 212.375 513.505 211.76 512.08 211.76H509.38V215.12ZM517.569 221V210.2H521.454C525.129 210.2 526.854 212.57 526.854 215.6C526.854 218.63 525.129 221 521.454 221H517.569ZM519.414 219.38H521.454C523.914 219.38 524.934 217.73 524.934 215.6C524.934 213.47 523.914 211.82 521.454 211.82H519.414V219.38ZM535.505 221.18C532.88 221.18 531.005 219.935 530.945 217.37H532.775C532.835 219.14 534.125 219.635 535.55 219.635C536.915 219.635 537.875 219.08 537.875 218C537.875 217.175 537.41 216.74 535.07 216.275C532.505 215.78 531.245 214.94 531.245 212.975C531.245 211.205 532.835 210.02 535.16 210.02C538.1 210.02 539.45 211.52 539.51 213.62H537.71C537.635 212.24 536.855 211.565 535.16 211.565C533.945 211.565 533.135 212.09 533.135 212.93C533.135 213.785 533.48 214.235 535.76 214.685C538.94 215.285 539.765 216.275 539.765 217.925C539.765 219.98 538.01 221.18 535.505 221.18ZM545.925 221.18C542.445 221.18 540.63 218.63 540.63 215.6C540.63 212.57 542.445 210.02 545.925 210.02C549.405 210.02 551.22 212.57 551.22 215.6C551.22 218.63 549.405 221.18 545.925 221.18ZM542.55 215.6C542.55 217.73 543.585 219.515 545.925 219.515C548.28 219.515 549.3 217.73 549.3 215.6C549.3 213.47 548.28 211.685 545.925 211.685C543.585 211.685 542.55 213.47 542.55 215.6ZM552.667 221V210.2H560.197V211.865H554.512V214.625H559.912V216.23H554.512V221H552.667ZM564.231 221V211.865H560.736V210.2H569.616V211.865H566.106V221H564.231ZM579.456 221L577.326 212.555L575.196 221H573.141L570.051 210.2H571.986L574.236 218.66L576.366 210.2H578.301L580.431 218.675L582.666 210.2H584.616L581.526 221H579.456ZM593.633 221L592.658 218.39H587.873L586.898 221H584.978L589.208 210.2H591.323L595.583 221H593.633ZM588.473 216.785H592.058L590.273 211.955L588.473 216.785ZM596.715 221V210.2H601.455C604.065 210.2 605.25 211.475 605.25 213.35C605.25 214.415 604.665 215.345 603.57 215.945C604.425 216.305 604.815 216.98 604.95 217.865L605.43 221H603.525L603.165 218.345C602.985 217.145 602.415 216.635 601.275 216.635H598.56V221H596.715ZM598.56 215.12H601.26C602.685 215.12 603.345 214.505 603.345 213.44C603.345 212.375 602.685 211.76 601.26 211.76H598.56V215.12ZM606.749 221V210.2H614.579V211.865H608.594V214.625H614.144V216.23H608.594V219.335H614.534V221H606.749Z" fill="#141414"/>
<path d="M456.862 353L452.827 342.2H454.792L457.942 351.23L461.047 342.2H463.012L458.977 353H456.862ZM464.139 353V342.2H471.969V343.865H465.984V346.625H471.534V348.23H465.984V351.335H471.924V353H464.139ZM480.433 353V348.29H475.183V353H473.338V342.2H475.183V346.61H480.433V342.2H482.278V353H480.433ZM484.163 353V342.2H486.008V353H484.163ZM492.744 353.18C489.264 353.18 487.449 350.63 487.449 347.6C487.449 344.57 489.264 342.02 492.744 342.02C495.354 342.02 497.064 343.685 497.424 345.92H495.564C495.279 344.6 494.244 343.685 492.744 343.685C490.404 343.685 489.369 345.47 489.369 347.6C489.369 349.73 490.404 351.515 492.744 351.515C494.364 351.515 495.399 350.435 495.624 348.965H497.484C497.199 351.365 495.474 353.18 492.744 353.18ZM498.929 353V342.2H500.774V351.335H506.009V353H498.929ZM507.235 353V342.2H515.065V343.865H509.08V346.625H514.63V348.23H509.08V351.335H515.02V353H507.235ZM526.707 353V348.29H521.457V353H519.612V342.2H521.457V346.61H526.707V342.2H528.552V353H526.707ZM538.328 353L537.353 350.39H532.568L531.593 353H529.673L533.903 342.2H536.018L540.278 353H538.328ZM533.168 348.785H536.753L534.968 343.955L533.168 348.785ZM541.409 353V342.2H546.149C548.759 342.2 549.944 343.475 549.944 345.35C549.944 346.415 549.359 347.345 548.264 347.945C549.119 348.305 549.509 348.98 549.644 349.865L550.124 353H548.219L547.859 350.345C547.679 349.145 547.109 348.635 545.969 348.635H543.254V353H541.409ZM543.254 347.12H545.954C547.379 347.12 548.039 346.505 548.039 345.44C548.039 344.375 547.379 343.76 545.954 343.76H543.254V347.12ZM551.444 353V342.2H555.329C559.004 342.2 560.729 344.57 560.729 347.6C560.729 350.63 559.004 353 555.329 353H551.444ZM553.289 351.38H555.329C557.789 351.38 558.809 349.73 558.809 347.6C558.809 345.47 557.789 343.82 555.329 343.82H553.289V351.38ZM570.806 353L568.676 344.555L566.546 353H564.491L561.401 342.2H563.336L565.586 350.66L567.716 342.2H569.651L571.781 350.675L574.016 342.2H575.966L572.876 353H570.806ZM584.983 353L584.008 350.39H579.223L578.248 353H576.328L580.558 342.2H582.673L586.933 353H584.983ZM579.823 348.785H583.408L581.623 343.955L579.823 348.785ZM588.065 353V342.2H592.805C595.415 342.2 596.6 343.475 596.6 345.35C596.6 346.415 596.015 347.345 594.92 347.945C595.775 348.305 596.165 348.98 596.3 349.865L596.78 353H594.875L594.515 350.345C594.335 349.145 593.765 348.635 592.625 348.635H589.91V353H588.065ZM589.91 347.12H592.61C594.035 347.12 594.695 346.505 594.695 345.44C594.695 344.375 594.035 343.76 592.61 343.76H589.91V347.12ZM598.099 353V342.2H605.929V343.865H599.944V346.625H605.494V348.23H599.944V351.335H605.884V353H598.099Z" fill="#141414"/>
<rect x="535" y="24" width="120" height="120" rx="4" fill="#C8CBCA"/>
<rect x="800" y="156" width="252" height="252" rx="4" fill="#DEDC00"/>
<path d="M559.531 90L558.556 87.39H553.771L552.796 90H550.876L555.106 79.2H557.221L561.481 90H559.531ZM554.371 85.785H557.956L556.171 80.955L554.371 85.785ZM566.872 90.18C564.172 90.18 562.462 88.68 562.462 85.92V79.2H564.307V85.92C564.307 87.735 565.252 88.545 566.872 88.545C568.507 88.545 569.437 87.735 569.437 85.92V79.2H571.282V85.92C571.282 88.68 569.572 90.18 566.872 90.18ZM575.833 90V80.865H572.338V79.2H581.218V80.865H577.708V90H575.833ZM587.262 90.18C583.782 90.18 581.967 87.63 581.967 84.6C581.967 81.57 583.782 79.02 587.262 79.02C590.742 79.02 592.557 81.57 592.557 84.6C592.557 87.63 590.742 90.18 587.262 90.18ZM583.887 84.6C583.887 86.73 584.922 88.515 587.262 88.515C589.617 88.515 590.637 86.73 590.637 84.6C590.637 82.47 589.617 80.685 587.262 80.685C584.922 80.685 583.887 82.47 583.887 84.6ZM600.964 90L595.804 81.705V90H594.004V79.2H596.089L601.249 87.48V79.2H603.049V90H600.964ZM609.777 90.18C606.297 90.18 604.482 87.63 604.482 84.6C604.482 81.57 606.297 79.02 609.777 79.02C613.257 79.02 615.072 81.57 615.072 84.6C615.072 87.63 613.257 90.18 609.777 90.18ZM606.402 84.6C606.402 86.73 607.437 88.515 609.777 88.515C612.132 88.515 613.152 86.73 613.152 84.6C613.152 82.47 612.132 80.685 609.777 80.685C607.437 80.685 606.402 82.47 606.402 84.6ZM621.364 90L618.304 81.75V90H616.519V79.2H619.129L622.174 87.825L625.219 79.2H627.814V90H626.044V81.735L622.969 90H621.364ZM633.137 90V85.77L628.937 79.2H631.052L634.052 84.09L637.067 79.2H639.122L634.967 85.77V90H633.137Z" fill="#141414"/>
<path d="M887.665 276V265.2H889.51V276H887.665ZM898.361 276L893.201 267.705V276H891.401V265.2H893.486L898.646 273.48V265.2H900.446V276H898.361ZM902.328 276V265.2H906.213C909.888 265.2 911.613 267.57 911.613 270.6C911.613 273.63 909.888 276 906.213 276H902.328ZM904.173 274.38H906.213C908.673 274.38 909.693 272.73 909.693 270.6C909.693 268.47 908.673 266.82 906.213 266.82H904.173V274.38ZM917.311 276.18C914.611 276.18 912.901 274.68 912.901 271.92V265.2H914.746V271.92C914.746 273.735 915.691 274.545 917.311 274.545C918.946 274.545 919.876 273.735 919.876 271.92V265.2H921.721V271.92C921.721 274.68 920.011 276.18 917.311 276.18ZM927.501 276.18C924.876 276.18 923.001 274.935 922.941 272.37H924.771C924.831 274.14 926.121 274.635 927.546 274.635C928.911 274.635 929.871 274.08 929.871 273C929.871 272.175 929.406 271.74 927.066 271.275C924.501 270.78 923.241 269.94 923.241 267.975C923.241 266.205 924.831 265.02 927.156 265.02C930.096 265.02 931.446 266.52 931.506 268.62H929.706C929.631 267.24 928.851 266.565 927.156 266.565C925.941 266.565 925.131 267.09 925.131 267.93C925.131 268.785 925.476 269.235 927.756 269.685C930.936 270.285 931.761 271.275 931.761 272.925C931.761 274.98 930.006 276.18 927.501 276.18ZM935.88 276V266.865H932.385V265.2H941.265V266.865H937.755V276H935.88ZM942.465 276V265.2H947.205C949.815 265.2 951 266.475 951 268.35C951 269.415 950.415 270.345 949.32 270.945C950.175 271.305 950.565 271.98 950.7 272.865L951.18 276H949.275L948.915 273.345C948.735 272.145 948.165 271.635 947.025 271.635H944.31V276H942.465ZM944.31 270.12H947.01C948.435 270.12 949.095 269.505 949.095 268.44C949.095 267.375 948.435 266.76 947.01 266.76H944.31V270.12ZM955.934 276V271.77L951.734 265.2H953.849L956.849 270.09L959.864 265.2H961.919L957.764 271.77V276H955.934ZM884.501 300.18C881.876 300.18 880.001 298.935 879.941 296.37H881.771C881.831 298.14 883.121 298.635 884.546 298.635C885.911 298.635 886.871 298.08 886.871 297C886.871 296.175 886.406 295.74 884.066 295.275C881.501 294.78 880.241 293.94 880.241 291.975C880.241 290.205 881.831 289.02 884.156 289.02C887.096 289.02 888.446 290.52 888.506 292.62H886.706C886.631 291.24 885.851 290.565 884.156 290.565C882.941 290.565 882.131 291.09 882.131 291.93C882.131 292.785 882.476 293.235 884.756 293.685C887.936 294.285 888.761 295.275 888.761 296.925C888.761 298.98 887.006 300.18 884.501 300.18ZM892.88 300V290.865H889.385V289.2H898.265V290.865H894.755V300H892.88ZM907.355 300L906.38 297.39H901.595L900.62 300H898.7L902.93 289.2H905.045L909.305 300H907.355ZM902.195 295.785H905.78L903.995 290.955L902.195 295.785ZM917.396 300L912.236 291.705V300H910.436V289.2H912.521L917.681 297.48V289.2H919.481V300H917.396ZM921.364 300V289.2H925.249C928.924 289.2 930.649 291.57 930.649 294.6C930.649 297.63 928.924 300 925.249 300H921.364ZM923.209 298.38H925.249C927.709 298.38 928.729 296.73 928.729 294.6C928.729 292.47 927.709 290.82 925.249 290.82H923.209V298.38ZM939.977 300L939.002 297.39H934.217L933.242 300H931.322L935.552 289.2H937.667L941.927 300H939.977ZM934.817 295.785H938.402L936.617 290.955L934.817 295.785ZM943.058 300V289.2H947.798C950.408 289.2 951.593 290.475 951.593 292.35C951.593 293.415 951.008 294.345 949.913 294.945C950.768 295.305 951.158 295.98 951.293 296.865L951.773 300H949.868L949.508 297.345C949.328 296.145 948.758 295.635 947.618 295.635H944.903V300H943.058ZM944.903 294.12H947.603C949.028 294.12 949.688 293.505 949.688 292.44C949.688 291.375 949.028 290.76 947.603 290.76H944.903V294.12ZM953.092 300V289.2H956.977C960.652 289.2 962.377 291.57 962.377 294.6C962.377 297.63 960.652 300 956.977 300H953.092ZM954.937 298.38H956.977C959.437 298.38 960.457 296.73 960.457 294.6C960.457 292.47 959.437 290.82 956.977 290.82H954.937V298.38ZM967.85 300.18C965.225 300.18 963.35 298.935 963.29 296.37H965.12C965.18 298.14 966.47 298.635 967.895 298.635C969.26 298.635 970.22 298.08 970.22 297C970.22 296.175 969.755 295.74 967.415 295.275C964.85 294.78 963.59 293.94 963.59 291.975C963.59 290.205 965.18 289.02 967.505 289.02C970.445 289.02 971.795 290.52 971.855 292.62H970.055C969.98 291.24 969.2 290.565 967.505 290.565C966.29 290.565 965.48 291.09 965.48 291.93C965.48 292.785 965.825 293.235 968.105 293.685C971.285 294.285 972.11 295.275 972.11 296.925C972.11 298.98 970.355 300.18 967.85 300.18Z" fill="#141414"/>
<rect x="668" y="24" width="120" height="120" rx="4" fill="#C8CBCA"/>
<path d="M700.794 78L696.759 67.2H698.724L701.874 76.23L704.979 67.2H706.944L702.909 78H700.794ZM708.071 78V67.2H715.901V68.865H709.916V71.625H715.466V73.23H709.916V76.335H715.856V78H708.071ZM724.365 78V73.29H719.115V78H717.27V67.2H719.115V71.61H724.365V67.2H726.21V78H724.365ZM728.095 78V67.2H729.94V78H728.095ZM736.676 78.18C733.196 78.18 731.381 75.63 731.381 72.6C731.381 69.57 733.196 67.02 736.676 67.02C739.286 67.02 740.996 68.685 741.356 70.92H739.496C739.211 69.6 738.176 68.685 736.676 68.685C734.336 68.685 733.301 70.47 733.301 72.6C733.301 74.73 734.336 76.515 736.676 76.515C738.296 76.515 739.331 75.435 739.556 73.965H741.416C741.131 76.365 739.406 78.18 736.676 78.18ZM742.861 78V67.2H744.706V76.335H749.941V78H742.861ZM751.167 78V67.2H758.997V68.865H753.012V71.625H758.562V73.23H753.012V76.335H758.952V78H751.167ZM685.754 102V91.2H693.284V92.865H687.599V95.625H692.999V97.23H687.599V102H685.754ZM698.774 102.18C696.074 102.18 694.364 100.68 694.364 97.92V91.2H696.209V97.92C696.209 99.735 697.154 100.545 698.774 100.545C700.409 100.545 701.339 99.735 701.339 97.92V91.2H703.184V97.92C703.184 100.68 701.474 102.18 698.774 102.18ZM711.889 102L706.729 93.705V102H704.929V91.2H707.014L712.174 99.48V91.2H713.974V102H711.889ZM720.702 102.18C717.222 102.18 715.407 99.63 715.407 96.6C715.407 93.57 717.222 91.02 720.702 91.02C723.312 91.02 725.022 92.685 725.382 94.92H723.522C723.237 93.6 722.202 92.685 720.702 92.685C718.362 92.685 717.327 94.47 717.327 96.6C717.327 98.73 718.362 100.515 720.702 100.515C722.322 100.515 723.357 99.435 723.582 97.965H725.442C725.157 100.365 723.432 102.18 720.702 102.18ZM729.692 102V92.865H726.197V91.2H735.077V92.865H731.567V102H729.692ZM736.277 102V91.2H738.122V102H736.277ZM744.857 102.18C741.377 102.18 739.562 99.63 739.562 96.6C739.562 93.57 741.377 91.02 744.857 91.02C748.337 91.02 750.152 93.57 750.152 96.6C750.152 99.63 748.337 102.18 744.857 102.18ZM741.482 96.6C741.482 98.73 742.517 100.515 744.857 100.515C747.212 100.515 748.232 98.73 748.232 96.6C748.232 94.47 747.212 92.685 744.857 92.685C742.517 92.685 741.482 94.47 741.482 96.6ZM758.559 102L753.399 93.705V102H751.599V91.2H753.684L758.844 99.48V91.2H760.644V102H758.559ZM766.562 102.18C763.937 102.18 762.062 100.935 762.002 98.37H763.832C763.892 100.14 765.182 100.635 766.607 100.635C767.972 100.635 768.932 100.08 768.932 99C768.932 98.175 768.467 97.74 766.127 97.275C763.562 96.78 762.302 95.94 762.302 93.975C762.302 92.205 763.892 91.02 766.217 91.02C769.157 91.02 770.507 92.52 770.567 94.62H768.767C768.692 93.24 767.912 92.565 766.217 92.565C765.002 92.565 764.192 93.09 764.192 93.93C764.192 94.785 764.537 95.235 766.817 95.685C769.997 96.285 770.822 97.275 770.822 98.925C770.822 100.98 769.067 102.18 766.562 102.18Z" fill="#141414"/>
<rect x="248" y="1" width="827" height="430" rx="7.27141" stroke="#292728" stroke-width="2" stroke-dasharray="5.51 5.51"/>
</svg>
