<svg width="1096" height="459" viewBox="0 0 1096 459" fill="none" xmlns="http://www.w3.org/2000/svg">
<rect x="304" width="514" height="119" rx="4" fill="#DEDC00"/>
<rect x="27" y="145" width="514" height="119" rx="4" fill="#DEDC00"/>
<rect x="48" y="293" width="512" height="117" rx="3" fill="#DEDC00" stroke="#F2F2F2" stroke-width="2"/>
<rect x="25" y="315" width="512" height="117" rx="3" fill="#DEDC00" stroke="#F2F2F2" stroke-width="2"/>
<rect x="1" y="340" width="512" height="117" rx="3" fill="#DEDC00" stroke="#F2F2F2" stroke-width="2"/>
<rect x="581" y="145" width="514" height="119" rx="4" fill="#DEDC00"/>
<path d="M482.027 65.18C478.727 65.18 476.912 62.63 476.912 59.6C476.912 56.57 478.727 54.02 482.207 54.02C485.012 54.02 486.782 55.67 487.157 57.875H485.267C484.982 56.585 483.887 55.67 482.207 55.67C479.867 55.67 478.832 57.47 478.832 59.6C478.832 61.73 479.867 63.53 482.207 63.53C484.037 63.53 485.057 62.435 485.417 60.785H481.757V59.255H487.277V65H485.852V63.11C485.162 64.385 483.962 65.18 482.027 65.18ZM493.882 65.18C490.402 65.18 488.587 62.63 488.587 59.6C488.587 56.57 490.402 54.02 493.882 54.02C497.362 54.02 499.177 56.57 499.177 59.6C499.177 62.63 497.362 65.18 493.882 65.18ZM490.507 59.6C490.507 61.73 491.542 63.515 493.882 63.515C496.237 63.515 497.257 61.73 497.257 59.6C497.257 57.47 496.237 55.685 493.882 55.685C491.542 55.685 490.507 57.47 490.507 59.6ZM503.894 65L499.859 54.2H501.824L504.974 63.23L508.079 54.2H510.044L506.009 65H503.894ZM511.171 65V54.2H519.001V55.865H513.016V58.625H518.566V60.23H513.016V63.335H518.956V65H511.171ZM520.37 65V54.2H525.11C527.72 54.2 528.905 55.475 528.905 57.35C528.905 58.415 528.32 59.345 527.225 59.945C528.08 60.305 528.47 60.98 528.605 61.865L529.085 65H527.18L526.82 62.345C526.64 61.145 526.07 60.635 524.93 60.635H522.215V65H520.37ZM522.215 59.12H524.915C526.34 59.12 527 58.505 527 57.44C527 56.375 526.34 55.76 524.915 55.76H522.215V59.12ZM537.364 65L532.204 56.705V65H530.404V54.2H532.489L537.649 62.48V54.2H539.449V65H537.364ZM541.332 65V54.2H543.177V65H541.332ZM552.027 65L546.867 56.705V65H545.067V54.2H547.152L552.312 62.48V54.2H554.112V65H552.027ZM560.66 65.18C557.36 65.18 555.545 62.63 555.545 59.6C555.545 56.57 557.36 54.02 560.84 54.02C563.645 54.02 565.415 55.67 565.79 57.875H563.9C563.615 56.585 562.52 55.67 560.84 55.67C558.5 55.67 557.465 57.47 557.465 59.6C557.465 61.73 558.5 63.53 560.84 63.53C562.67 63.53 563.69 62.435 564.05 60.785H560.39V59.255H565.91V65H564.485V63.11C563.795 64.385 562.595 65.18 560.66 65.18ZM570.849 65V54.2H575.109C577.719 54.2 578.994 55.4 578.994 57.095C578.994 58.085 578.559 58.85 577.689 59.33C578.874 59.81 579.444 60.74 579.444 61.895C579.444 63.785 578.169 65 575.559 65H570.849ZM572.694 63.425H575.559C576.939 63.425 577.554 62.855 577.554 61.85C577.554 60.83 576.939 60.26 575.559 60.26H572.694V63.425ZM572.694 58.73H575.169C576.549 58.73 577.164 58.16 577.164 57.245C577.164 56.345 576.549 55.775 575.169 55.775H572.694V58.73ZM585.611 65.18C582.131 65.18 580.316 62.63 580.316 59.6C580.316 56.57 582.131 54.02 585.611 54.02C589.091 54.02 590.906 56.57 590.906 59.6C590.906 62.63 589.091 65.18 585.611 65.18ZM582.236 59.6C582.236 61.73 583.271 63.515 585.611 63.515C587.966 63.515 588.986 61.73 588.986 59.6C588.986 57.47 587.966 55.685 585.611 55.685C583.271 55.685 582.236 57.47 582.236 59.6ZM592.353 65V54.2H596.238C599.913 54.2 601.638 56.57 601.638 59.6C601.638 62.63 599.913 65 596.238 65H592.353ZM594.198 63.38H596.238C598.698 63.38 599.718 61.73 599.718 59.6C599.718 57.47 598.698 55.82 596.238 55.82H594.198V63.38ZM606.51 65V60.77L602.31 54.2H604.425L607.425 59.09L610.44 54.2H612.495L608.34 60.77V65H606.51ZM618.241 68C616.831 65.495 616.051 63.155 616.051 60.5C616.051 57.845 616.831 55.505 618.241 53H619.846C618.406 55.655 617.806 57.875 617.806 60.5C617.806 63.125 618.406 65.345 619.846 68H618.241ZM626.124 65.18C622.824 65.18 621.009 62.63 621.009 59.6C621.009 56.57 622.824 54.02 626.304 54.02C629.109 54.02 630.879 55.67 631.254 57.875H629.364C629.079 56.585 627.984 55.67 626.304 55.67C623.964 55.67 622.929 57.47 622.929 59.6C622.929 61.73 623.964 63.53 626.304 63.53C628.134 63.53 629.154 62.435 629.514 60.785H625.854V59.255H631.374V65H629.949V63.11C629.259 64.385 628.059 65.18 626.124 65.18ZM633.134 65V54.2H637.394C640.004 54.2 641.279 55.4 641.279 57.095C641.279 58.085 640.844 58.85 639.974 59.33C641.159 59.81 641.729 60.74 641.729 61.895C641.729 63.785 640.454 65 637.844 65H633.134ZM634.979 63.425H637.844C639.224 63.425 639.839 62.855 639.839 61.85C639.839 60.83 639.224 60.26 637.844 60.26H634.979V63.425ZM634.979 58.73H637.454C638.834 58.73 639.449 58.16 639.449 57.245C639.449 56.345 638.834 55.775 637.454 55.775H634.979V58.73ZM642.226 68C643.666 65.345 644.266 63.125 644.266 60.5C644.266 57.875 643.666 55.655 642.226 53H643.831C645.241 55.505 646.021 57.845 646.021 60.5C646.021 63.155 645.241 65.495 643.831 68H642.226Z" fill="#141414"/>
<path d="M139.195 210.759V201.624H135.7V199.959H144.58V201.624H141.07V210.759H139.195ZM145.779 210.759V199.959H153.609V201.624H147.624V204.384H153.174V205.989H147.624V209.094H153.564V210.759H145.779ZM159.824 210.939C156.344 210.939 154.529 208.389 154.529 205.359C154.529 202.329 156.344 199.779 159.824 199.779C162.434 199.779 164.144 201.444 164.504 203.679H162.644C162.359 202.359 161.324 201.444 159.824 201.444C157.484 201.444 156.449 203.229 156.449 205.359C156.449 207.489 157.484 209.274 159.824 209.274C161.444 209.274 162.479 208.194 162.704 206.724H164.564C164.279 209.124 162.554 210.939 159.824 210.939ZM173.104 210.759V206.049H167.854V210.759H166.009V199.959H167.854V204.369H173.104V199.959H174.949V210.759H173.104ZM183.794 210.759L178.634 202.464V210.759H176.834V199.959H178.919L184.079 208.239V199.959H185.879V210.759H183.794ZM187.762 210.759V199.959H189.607V210.759H187.762ZM196.342 210.939C192.862 210.939 191.047 208.389 191.047 205.359C191.047 202.329 192.862 199.779 196.342 199.779C198.952 199.779 200.662 201.444 201.022 203.679H199.162C198.877 202.359 197.842 201.444 196.342 201.444C194.002 201.444 192.967 203.229 192.967 205.359C192.967 207.489 194.002 209.274 196.342 209.274C197.962 209.274 198.997 208.194 199.222 206.724H201.082C200.797 209.124 199.072 210.939 196.342 210.939ZM210.417 210.759L209.442 208.149H204.657L203.682 210.759H201.762L205.992 199.959H208.107L212.367 210.759H210.417ZM205.257 206.544H208.842L207.057 201.714L205.257 206.544ZM213.499 210.759V199.959H215.344V209.094H220.579V210.759H213.499ZM229.018 210.939C226.393 210.939 224.518 209.694 224.458 207.129H226.288C226.348 208.899 227.638 209.394 229.063 209.394C230.428 209.394 231.388 208.839 231.388 207.759C231.388 206.934 230.923 206.499 228.583 206.034C226.018 205.539 224.758 204.699 224.758 202.734C224.758 200.964 226.348 199.779 228.673 199.779C231.613 199.779 232.963 201.279 233.023 203.379H231.223C231.148 201.999 230.368 201.324 228.673 201.324C227.458 201.324 226.648 201.849 226.648 202.689C226.648 203.544 226.993 203.994 229.273 204.444C232.453 205.044 233.278 206.034 233.278 207.684C233.278 209.739 231.523 210.939 229.018 210.939ZM237.398 210.759V201.624H233.903V199.959H242.783V201.624H239.273V210.759H237.398ZM243.982 210.759V199.959H251.812V201.624H245.827V204.384H251.377V205.989H245.827V209.094H251.767V210.759H243.982ZM253.182 210.759V199.959H261.012V201.624H255.027V204.384H260.577V205.989H255.027V209.094H260.967V210.759H253.182ZM262.381 210.759V199.959H267.121C269.731 199.959 270.916 201.234 270.916 203.109C270.916 204.174 270.331 205.104 269.236 205.704C270.091 206.064 270.481 206.739 270.616 207.624L271.096 210.759H269.191L268.831 208.104C268.651 206.904 268.081 206.394 266.941 206.394H264.226V210.759H262.381ZM264.226 204.879H266.926C268.351 204.879 269.011 204.264 269.011 203.199C269.011 202.134 268.351 201.519 266.926 201.519H264.226V204.879ZM272.415 210.759V199.959H274.26V210.759H272.415ZM283.11 210.759L277.95 202.464V210.759H276.15V199.959H278.235L283.395 208.239V199.959H285.195V210.759H283.11ZM291.743 210.939C288.443 210.939 286.628 208.389 286.628 205.359C286.628 202.329 288.443 199.779 291.923 199.779C294.728 199.779 296.498 201.429 296.873 203.634H294.983C294.698 202.344 293.603 201.429 291.923 201.429C289.583 201.429 288.548 203.229 288.548 205.359C288.548 207.489 289.583 209.289 291.923 209.289C293.753 209.289 294.773 208.194 295.133 206.544H291.473V205.014H296.993V210.759H295.568V208.869C294.878 210.144 293.678 210.939 291.743 210.939ZM306.777 210.939C303.297 210.939 301.482 208.389 301.482 205.359C301.482 202.329 303.297 199.779 306.777 199.779C309.387 199.779 311.097 201.444 311.457 203.679H309.597C309.312 202.359 308.277 201.444 306.777 201.444C304.437 201.444 303.402 203.229 303.402 205.359C303.402 207.489 304.437 209.274 306.777 209.274C308.397 209.274 309.432 208.194 309.657 206.724H311.517C311.232 209.124 309.507 210.939 306.777 210.939ZM317.807 210.939C314.327 210.939 312.512 208.389 312.512 205.359C312.512 202.329 314.327 199.779 317.807 199.779C321.287 199.779 323.102 202.329 323.102 205.359C323.102 208.389 321.287 210.939 317.807 210.939ZM314.432 205.359C314.432 207.489 315.467 209.274 317.807 209.274C320.162 209.274 321.182 207.489 321.182 205.359C321.182 203.229 320.162 201.444 317.807 201.444C315.467 201.444 314.432 203.229 314.432 205.359ZM329.394 210.759L326.334 202.509V210.759H324.549V199.959H327.159L330.204 208.584L333.249 199.959H335.844V210.759H334.074V202.494L330.999 210.759H329.394ZM342.577 210.759L339.517 202.509V210.759H337.732V199.959H340.342L343.387 208.584L346.432 199.959H349.027V210.759H347.257V202.494L344.182 210.759H342.577ZM350.916 210.759V199.959H352.761V210.759H350.916ZM357.456 210.759V201.624H353.961V199.959H362.841V201.624H359.331V210.759H357.456ZM366.846 210.759V201.624H363.351V199.959H372.231V201.624H368.721V210.759H366.846ZM373.431 210.759V199.959H381.261V201.624H375.276V204.384H380.826V205.989H375.276V209.094H381.216V210.759H373.431ZM382.63 210.759V199.959H390.46V201.624H384.475V204.384H390.025V205.989H384.475V209.094H390.415V210.759H382.63ZM396.448 213.759C395.038 211.254 394.258 208.914 394.258 206.259C394.258 203.604 395.038 201.264 396.448 198.759H398.053C396.613 201.414 396.013 203.634 396.013 206.259C396.013 208.884 396.613 211.104 398.053 213.759H396.448ZM402.471 210.759V201.624H398.976V199.959H407.856V201.624H404.346V210.759H402.471ZM413.091 210.939C410.466 210.939 408.591 209.694 408.531 207.129H410.361C410.421 208.899 411.711 209.394 413.136 209.394C414.501 209.394 415.461 208.839 415.461 207.759C415.461 206.934 414.996 206.499 412.656 206.034C410.091 205.539 408.831 204.699 408.831 202.734C408.831 200.964 410.421 199.779 412.746 199.779C415.686 199.779 417.036 201.279 417.096 203.379H415.296C415.221 201.999 414.441 201.324 412.746 201.324C411.531 201.324 410.721 201.849 410.721 202.689C410.721 203.544 411.066 203.994 413.346 204.444C416.526 205.044 417.351 206.034 417.351 207.684C417.351 209.739 415.596 210.939 413.091 210.939ZM423.51 210.939C420.03 210.939 418.215 208.389 418.215 205.359C418.215 202.329 420.03 199.779 423.51 199.779C426.12 199.779 427.83 201.444 428.19 203.679H426.33C426.045 202.359 425.01 201.444 423.51 201.444C421.17 201.444 420.135 203.229 420.135 205.359C420.135 207.489 421.17 209.274 423.51 209.274C425.13 209.274 426.165 208.194 426.39 206.724H428.25C427.965 209.124 426.24 210.939 423.51 210.939ZM428.87 213.759C430.31 211.104 430.91 208.884 430.91 206.259C430.91 203.634 430.31 201.414 428.87 198.759H430.475C431.885 201.264 432.665 203.604 432.665 206.259C432.665 208.914 431.885 211.254 430.475 213.759H428.87Z" fill="#141414"/>
<path d="M201.756 404.31L199.626 395.865L197.496 404.31H195.441L192.351 393.51H194.286L196.536 401.97L198.666 393.51H200.601L202.731 401.985L204.966 393.51H206.916L203.826 404.31H201.756ZM212.888 404.49C209.408 404.49 207.593 401.94 207.593 398.91C207.593 395.88 209.408 393.33 212.888 393.33C216.368 393.33 218.183 395.88 218.183 398.91C218.183 401.94 216.368 404.49 212.888 404.49ZM209.513 398.91C209.513 401.04 210.548 402.825 212.888 402.825C215.243 402.825 216.263 401.04 216.263 398.91C216.263 396.78 215.243 394.995 212.888 394.995C210.548 394.995 209.513 396.78 209.513 398.91ZM219.63 404.31V393.51H224.37C226.98 393.51 228.165 394.785 228.165 396.66C228.165 397.725 227.58 398.655 226.485 399.255C227.34 399.615 227.73 400.29 227.865 401.175L228.345 404.31H226.44L226.08 401.655C225.9 400.455 225.33 399.945 224.19 399.945H221.475V404.31H219.63ZM221.475 398.43H224.175C225.6 398.43 226.26 397.815 226.26 396.75C226.26 395.685 225.6 395.07 224.175 395.07H221.475V398.43ZM229.664 404.31V393.51H231.509V398.94L236.789 393.51H239.129L234.749 397.89L239.129 404.31H236.909L233.459 399.195L231.509 401.145V404.31H229.664ZM240.255 404.31V393.51H242.1V404.31H240.255ZM250.95 404.31L245.79 396.015V404.31H243.99V393.51H246.075L251.235 401.79V393.51H253.035V404.31H250.95ZM259.583 404.49C256.283 404.49 254.468 401.94 254.468 398.91C254.468 395.88 256.283 393.33 259.763 393.33C262.568 393.33 264.338 394.98 264.713 397.185H262.823C262.538 395.895 261.443 394.98 259.763 394.98C257.423 394.98 256.388 396.78 256.388 398.91C256.388 401.04 257.423 402.84 259.763 402.84C261.593 402.84 262.613 401.745 262.973 400.095H259.313V398.565H264.833V404.31H263.408V402.42C262.718 403.695 261.518 404.49 259.583 404.49ZM274.437 404.49C271.137 404.49 269.322 401.94 269.322 398.91C269.322 395.88 271.137 393.33 274.617 393.33C277.422 393.33 279.192 394.98 279.567 397.185H277.677C277.392 395.895 276.297 394.98 274.617 394.98C272.277 394.98 271.242 396.78 271.242 398.91C271.242 401.04 272.277 402.84 274.617 402.84C276.447 402.84 277.467 401.745 277.827 400.095H274.167V398.565H279.687V404.31H278.262V402.42C277.572 403.695 276.372 404.49 274.437 404.49ZM281.446 404.31V393.51H286.186C288.796 393.51 289.981 394.785 289.981 396.66C289.981 397.725 289.396 398.655 288.301 399.255C289.156 399.615 289.546 400.29 289.681 401.175L290.161 404.31H288.256L287.896 401.655C287.716 400.455 287.146 399.945 286.006 399.945H283.291V404.31H281.446ZM283.291 398.43H285.991C287.416 398.43 288.076 397.815 288.076 396.75C288.076 395.685 287.416 395.07 285.991 395.07H283.291V398.43ZM296.325 404.49C292.845 404.49 291.03 401.94 291.03 398.91C291.03 395.88 292.845 393.33 296.325 393.33C299.805 393.33 301.62 395.88 301.62 398.91C301.62 401.94 299.805 404.49 296.325 404.49ZM292.95 398.91C292.95 401.04 293.985 402.825 296.325 402.825C298.68 402.825 299.7 401.04 299.7 398.91C299.7 396.78 298.68 394.995 296.325 394.995C293.985 394.995 292.95 396.78 292.95 398.91ZM307.327 404.49C304.627 404.49 302.917 402.99 302.917 400.23V393.51H304.762V400.23C304.762 402.045 305.707 402.855 307.327 402.855C308.962 402.855 309.892 402.045 309.892 400.23V393.51H311.737V400.23C311.737 402.99 310.027 404.49 307.327 404.49ZM313.482 404.31V393.51H317.982C320.592 393.51 321.867 395.025 321.867 396.96C321.867 398.88 320.592 400.395 317.982 400.395H315.327V404.31H313.482ZM315.327 398.79H317.907C319.332 398.79 319.992 398.07 319.992 396.96C319.992 395.85 319.332 395.13 317.907 395.13H315.327V398.79Z" fill="#141414"/>
<path d="M691.518 210.759L688.458 202.509V210.759H686.673V199.959H689.283L692.328 208.584L695.373 199.959H697.968V210.759H696.198V202.494L693.123 210.759H691.518ZM707.746 210.759L706.771 208.149H701.986L701.011 210.759H699.091L703.321 199.959H705.436L709.696 210.759H707.746ZM702.586 206.544H706.171L704.386 201.714L702.586 206.544ZM710.828 210.759V199.959H715.568C718.178 199.959 719.363 201.234 719.363 203.109C719.363 204.174 718.778 205.104 717.683 205.704C718.538 206.064 718.928 206.739 719.063 207.624L719.543 210.759H717.638L717.278 208.104C717.098 206.904 716.528 206.394 715.388 206.394H712.673V210.759H710.828ZM712.673 204.879H715.373C716.798 204.879 717.458 204.264 717.458 203.199C717.458 202.134 716.798 201.519 715.373 201.519H712.673V204.879ZM720.862 210.759V199.959H722.707V205.389L727.987 199.959H730.327L725.947 204.339L730.327 210.759H728.107L724.657 205.644L722.707 207.594V210.759H720.862ZM731.453 210.759V199.959H739.283V201.624H733.298V204.384H738.848V205.989H733.298V209.094H739.238V210.759H731.453ZM743.457 210.759V201.624H739.962V199.959H748.842V201.624H745.332V210.759H743.457ZM750.042 210.759V199.959H751.887V210.759H750.042ZM760.737 210.759L755.577 202.464V210.759H753.777V199.959H755.862L761.022 208.239V199.959H762.822V210.759H760.737ZM769.37 210.939C766.07 210.939 764.255 208.389 764.255 205.359C764.255 202.329 766.07 199.779 769.55 199.779C772.355 199.779 774.125 201.429 774.5 203.634H772.61C772.325 202.344 771.23 201.429 769.55 201.429C767.21 201.429 766.175 203.229 766.175 205.359C766.175 207.489 767.21 209.289 769.55 209.289C771.38 209.289 772.4 208.194 772.76 206.544H769.1V205.014H774.62V210.759H773.195V208.869C772.505 210.144 771.305 210.939 769.37 210.939ZM783.594 210.939C780.969 210.939 779.094 209.694 779.034 207.129H780.864C780.924 208.899 782.214 209.394 783.639 209.394C785.004 209.394 785.964 208.839 785.964 207.759C785.964 206.934 785.499 206.499 783.159 206.034C780.594 205.539 779.334 204.699 779.334 202.734C779.334 200.964 780.924 199.779 783.249 199.779C786.189 199.779 787.539 201.279 787.599 203.379H785.799C785.724 201.999 784.944 201.324 783.249 201.324C782.034 201.324 781.224 201.849 781.224 202.689C781.224 203.544 781.569 203.994 783.849 204.444C787.029 205.044 787.854 206.034 787.854 207.684C787.854 209.739 786.099 210.939 783.594 210.939ZM791.973 210.759V201.624H788.478V199.959H797.358V201.624H793.848V210.759H791.973ZM798.558 210.759V199.959H806.388V201.624H800.403V204.384H805.953V205.989H800.403V209.094H806.343V210.759H798.558ZM807.757 210.759V199.959H815.587V201.624H809.602V204.384H815.152V205.989H809.602V209.094H815.542V210.759H807.757ZM816.956 210.759V199.959H821.696C824.306 199.959 825.491 201.234 825.491 203.109C825.491 204.174 824.906 205.104 823.811 205.704C824.666 206.064 825.056 206.739 825.191 207.624L825.671 210.759H823.766L823.406 208.104C823.226 206.904 822.656 206.394 821.516 206.394H818.801V210.759H816.956ZM818.801 204.879H821.501C822.926 204.879 823.586 204.264 823.586 203.199C823.586 202.134 822.926 201.519 821.501 201.519H818.801V204.879ZM826.99 210.759V199.959H828.835V210.759H826.99ZM837.686 210.759L832.526 202.464V210.759H830.726V199.959H832.811L837.971 208.239V199.959H839.771V210.759H837.686ZM846.318 210.939C843.018 210.939 841.203 208.389 841.203 205.359C841.203 202.329 843.018 199.779 846.498 199.779C849.303 199.779 851.073 201.429 851.448 203.634H849.558C849.273 202.344 848.178 201.429 846.498 201.429C844.158 201.429 843.123 203.229 843.123 205.359C843.123 207.489 844.158 209.289 846.498 209.289C848.328 209.289 849.348 208.194 849.708 206.544H846.048V205.014H851.568V210.759H850.143V208.869C849.453 210.144 848.253 210.939 846.318 210.939ZM861.352 210.939C857.872 210.939 856.057 208.389 856.057 205.359C856.057 202.329 857.872 199.779 861.352 199.779C863.962 199.779 865.672 201.444 866.032 203.679H864.172C863.887 202.359 862.852 201.444 861.352 201.444C859.012 201.444 857.977 203.229 857.977 205.359C857.977 207.489 859.012 209.274 861.352 209.274C862.972 209.274 864.007 208.194 864.232 206.724H866.092C865.807 209.124 864.082 210.939 861.352 210.939ZM872.382 210.939C868.902 210.939 867.087 208.389 867.087 205.359C867.087 202.329 868.902 199.779 872.382 199.779C875.862 199.779 877.677 202.329 877.677 205.359C877.677 208.389 875.862 210.939 872.382 210.939ZM869.007 205.359C869.007 207.489 870.042 209.274 872.382 209.274C874.737 209.274 875.757 207.489 875.757 205.359C875.757 203.229 874.737 201.444 872.382 201.444C870.042 201.444 869.007 203.229 869.007 205.359ZM883.969 210.759L880.909 202.509V210.759H879.124V199.959H881.734L884.779 208.584L887.824 199.959H890.419V210.759H888.649V202.494L885.574 210.759H883.969ZM897.153 210.759L894.093 202.509V210.759H892.308V199.959H894.918L897.963 208.584L901.008 199.959H903.603V210.759H901.833V202.494L898.758 210.759H897.153ZM905.491 210.759V199.959H907.336V210.759H905.491ZM912.032 210.759V201.624H908.537V199.959H917.417V201.624H913.907V210.759H912.032ZM921.421 210.759V201.624H917.926V199.959H926.806V201.624H923.296V210.759H921.421ZM928.006 210.759V199.959H935.836V201.624H929.851V204.384H935.401V205.989H929.851V209.094H935.791V210.759H928.006ZM937.205 210.759V199.959H945.035V201.624H939.05V204.384H944.6V205.989H939.05V209.094H944.99V210.759H937.205ZM951.023 213.759C949.613 211.254 948.833 208.914 948.833 206.259C948.833 203.604 949.613 201.264 951.023 198.759H952.628C951.188 201.414 950.588 203.634 950.588 206.259C950.588 208.884 951.188 211.104 952.628 213.759H951.023ZM959.086 210.759L956.026 202.509V210.759H954.241V199.959H956.851L959.896 208.584L962.941 199.959H965.536V210.759H963.766V202.494L960.691 210.759H959.086ZM971.46 210.939C968.835 210.939 966.96 209.694 966.9 207.129H968.73C968.79 208.899 970.08 209.394 971.505 209.394C972.87 209.394 973.83 208.839 973.83 207.759C973.83 206.934 973.365 206.499 971.025 206.034C968.46 205.539 967.2 204.699 967.2 202.734C967.2 200.964 968.79 199.779 971.115 199.779C974.055 199.779 975.405 201.279 975.465 203.379H973.665C973.59 201.999 972.81 201.324 971.115 201.324C969.9 201.324 969.09 201.849 969.09 202.689C969.09 203.544 969.435 203.994 971.715 204.444C974.895 205.044 975.72 206.034 975.72 207.684C975.72 209.739 973.965 210.939 971.46 210.939ZM981.879 210.939C978.399 210.939 976.584 208.389 976.584 205.359C976.584 202.329 978.399 199.779 981.879 199.779C984.489 199.779 986.199 201.444 986.559 203.679H984.699C984.414 202.359 983.379 201.444 981.879 201.444C979.539 201.444 978.504 203.229 978.504 205.359C978.504 207.489 979.539 209.274 981.879 209.274C983.499 209.274 984.534 208.194 984.759 206.724H986.619C986.334 209.124 984.609 210.939 981.879 210.939ZM987.239 213.759C988.679 211.104 989.279 208.884 989.279 206.259C989.279 203.634 988.679 201.414 987.239 198.759H988.844C990.254 201.264 991.034 203.604 991.034 206.259C991.034 208.914 990.254 211.254 988.844 213.759H987.239Z" fill="#141414"/>
<path d="M282.256 147.646C282.646 148.037 283.279 148.037 283.67 147.646L290.034 141.282C290.424 140.892 290.424 140.259 290.034 139.868C289.643 139.478 289.01 139.478 288.62 139.868L282.963 145.525L277.306 139.868C276.916 139.478 276.282 139.478 275.892 139.868C275.501 140.259 275.501 140.892 275.892 141.282L282.256 147.646ZM282.963 63.6826V62.6826H281.963V63.6826H282.963ZM305.7 64.3897C306.091 63.9992 306.091 63.366 305.7 62.9755L299.336 56.6115C298.946 56.221 298.313 56.221 297.922 56.6115C297.532 57.0021 297.532 57.6352 297.922 58.0258L303.579 63.6826L297.922 69.3395C297.532 69.73 297.532 70.3632 297.922 70.7537C298.313 71.1442 298.946 71.1442 299.336 70.7537L305.7 64.3897ZM283.963 146.939V63.6826H281.963V146.939H283.963ZM282.963 64.6826H304.993V62.6826H282.963V64.6826Z" fill="#292728"/>
<path d="M304.993 280.603H305.993V279.603H304.993V280.603ZM304.286 295.287C304.677 295.678 305.31 295.678 305.7 295.287L312.064 288.923C312.455 288.533 312.455 287.899 312.064 287.509C311.674 287.118 311.041 287.118 310.65 287.509L304.993 293.166L299.336 287.509C298.946 287.118 298.313 287.118 297.922 287.509C297.532 287.899 297.532 288.533 297.922 288.923L304.286 295.287ZM282.963 281.603H304.993V279.603H282.963V281.603ZM303.993 280.603V294.58H305.993V280.603H303.993Z" fill="#292728"/>
<path d="M260.932 280.603H259.932V279.603H260.932V280.603ZM261.64 316.809C261.249 317.199 260.616 317.199 260.225 316.809L253.861 310.445C253.471 310.054 253.471 309.421 253.861 309.031C254.252 308.64 254.885 308.64 255.276 309.031L260.932 314.688L266.589 309.031C266.98 308.64 267.613 308.64 268.004 309.031C268.394 309.421 268.394 310.054 268.004 310.445L261.64 316.809ZM282.963 281.603H260.932V279.603H282.963V281.603ZM261.932 280.603V316.102H259.932V280.603H261.932Z" fill="#292728"/>
<path d="M282.256 341.648C282.646 342.039 283.279 342.039 283.67 341.648L290.034 335.285C290.424 334.894 290.424 334.261 290.034 333.87C289.643 333.48 289.01 333.48 288.62 333.87L282.963 339.527L277.306 333.87C276.916 333.48 276.282 333.48 275.892 333.87C275.501 334.261 275.501 334.894 275.892 335.285L282.256 341.648ZM283.963 340.941V265.165H281.963V340.941H283.963Z" fill="#292728"/>
<path d="M841.574 147.646C841.184 148.037 840.551 148.037 840.16 147.646L833.796 141.282C833.406 140.892 833.406 140.259 833.796 139.868C834.187 139.478 834.82 139.478 835.21 139.868L840.867 145.525L846.524 139.868C846.915 139.478 847.548 139.478 847.938 139.868C848.329 140.259 848.329 140.892 847.938 141.282L841.574 147.646ZM840.867 63.6826V62.6826H841.867V63.6826H840.867ZM818.13 64.3897C817.739 63.9992 817.739 63.366 818.13 62.9755L824.494 56.6115C824.884 56.221 825.517 56.221 825.908 56.6115C826.298 57.0021 826.298 57.6352 825.908 58.0258L820.251 63.6826L825.908 69.3395C826.298 69.73 826.298 70.3632 825.908 70.7537C825.517 71.1442 824.884 71.1442 824.494 70.7537L818.13 64.3897ZM839.867 146.939V63.6826H841.867V146.939H839.867ZM840.867 64.6826H818.837V62.6826H840.867V64.6826Z" fill="#292728"/>
</svg>
